Mon Jun  7 08:35:42 2021    stats.log

         1179 function calls (1107 primitive calls) in 0.001 seconds

   Ordered by: call count

   ncalls  tottime  percall  cumtime  percall filename:lineno(function)
      395    0.000    0.000    0.000    0.000 utility1.py:54(counter)
      395    0.000    0.000    0.000    0.000 {method 'append' of 'list' objects}
      109    0.000    0.000    0.000    0.000 {built-in method builtins.len}
     73/1    0.001    0.000    0.001    0.001 library1.py:52(quick_sort)
       60    0.000    0.000    0.000    0.000 {method 'getrandbits' of '_random.Random' objects}
       36    0.000    0.000    0.000    0.000 random.py:200(randrange)
       36    0.000    0.000    0.000    0.000 random.py:244(randint)
       36    0.000    0.000    0.000    0.000 random.py:250(_randbelow_with_getrandbits)
       36    0.000    0.000    0.000    0.000 {method 'bit_length' of 'int' objects}
        1    0.000    0.000    0.001    0.001 <string>:1(<module>)
        1    0.000    0.000    0.001    0.001 {built-in method builtins.exec}
        1    0.000    0.000    0.000    0.000 {method 'disable' of '_lsprof.Profiler' objects}


